
./tezos-client --mode mockup --base-dir '<masked>' --wait none originate contract register_calls transferring 0 from bootstrap1 running '
parameter unit;
storage (list address);
code {
       CDR ;
       SOURCE ;
       CONS ;
       NIL operation ;
       PAIR ;
     };
view "calls_count" unit nat { CDR ; SIZE };
view "last_caller" unit (option address) { CDR ; IF_CONS { DIP { DROP } ; SOME } { NONE address } };
' --init '{}' --burn-cap 1
Node is bootstrapped.
Estimated gas: 1426.921 units (will add 100 for safety)
Estimated storage: 409 bytes added (will add 20 for safety)
Operation successfully injected in the node.
Operation hash is 'oow4SAcGS9xTtTqPKayDoSUrkfkNQRoPKE1pN1JuviFG2YrF6GY'
NOT waiting for the operation to be included.
Use command
  tezos-client wait for oow4SAcGS9xTtTqPKayDoSUrkfkNQRoPKE1pN1JuviFG2YrF6GY to be included --confirmations 1 --branch BLockGenesisGenesisGenesisGenesisGenesisCCCCCeZiLHU
and/or an external block explorer to make sure that it has been included.
This sequence of operations was run:
  Manager signed operations:
    From: tz1KqTpEZ7Yob7QbPE4Hy4Wo8fHG8LhKxZSx
    Fee to the baker: ꜩ0.000532
    Expected counter: 1
    Gas limit: 1527
    Storage limit: 429 bytes
    Balance updates:
      tz1KqTpEZ7Yob7QbPE4Hy4Wo8fHG8LhKxZSx ... -ꜩ0.000532
      payload fees(the block proposer) ....... +ꜩ0.000532
    Origination:
      From: tz1KqTpEZ7Yob7QbPE4Hy4Wo8fHG8LhKxZSx
      Credit: ꜩ0
      Script:
        { parameter unit ;
          storage (list address) ;
          code { CDR ; SOURCE ; CONS ; NIL operation ; PAIR } ;
          view "calls_count" unit nat { CDR ; SIZE } ;
          view "last_caller"
               unit
               (option address)
               { CDR ; IF_CONS { DIP { DROP } ; SOME } { NONE address } } }
        Initial storage: {}
        No delegate for this contract
        This origination was successfully applied
        Originated contracts:
          KT1LfQjDNgPpdwMHbhzyQcD8GTE2L4rwxxpN
        Storage size: 152 bytes
        Paid storage size diff: 152 bytes
        Consumed gas: 1426.921
        Balance updates:
          tz1KqTpEZ7Yob7QbPE4Hy4Wo8fHG8LhKxZSx ... -ꜩ0.038
          storage fees ........................... +ꜩ0.038
          tz1KqTpEZ7Yob7QbPE4Hy4Wo8fHG8LhKxZSx ... -ꜩ0.06425
          storage fees ........................... +ꜩ0.06425

New contract KT1LfQjDNgPpdwMHbhzyQcD8GTE2L4rwxxpN originated.
Contract memorized as register_calls.

./tezos-client --mode mockup --base-dir '<masked>' --wait none originate contract check_caller transferring 0 from bootstrap1 running '
parameter address ;
storage (option address) ;
code {
       CAR ;
       DUP ;
       UNIT ;
       VIEW "calls_count" nat ;
       IF_NONE { UNIT ; FAILWITH } {} ;
       DIP {
              UNIT ;
              VIEW "last_caller" (option address) ;
           } ;
       PUSH nat 0 ;
       /* Check if the caller address is consistent with given calls count. */
       IFCMPEQ {
                 IF_NONE { UNIT ; FAILWITH } { IF_NONE {} { UNIT ; FAILWITH }} ;
                 NONE address ;
               }
               {
                 IF_NONE { UNIT ; FAILWITH } { IF_NONE { UNIT ; FAILWITH } {}} ;
                 SOME ;
               } ;
       NIL operation ;
       PAIR ;
     }
   ' --init None --burn-cap 1
Node is bootstrapped.
Estimated gas: 1449.065 units (will add 100 for safety)
Estimated storage: 465 bytes added (will add 20 for safety)
Operation successfully injected in the node.
Operation hash is 'onrV7eJG7EJRrVp6BLHozvqDM2nNTrYHWmNNMh1AxvHsAmF6wYP'
NOT waiting for the operation to be included.
Use command
  tezos-client wait for onrV7eJG7EJRrVp6BLHozvqDM2nNTrYHWmNNMh1AxvHsAmF6wYP to be included --confirmations 1 --branch BLockGenesisGenesisGenesisGenesisGenesisCCCCCeZiLHU
and/or an external block explorer to make sure that it has been included.
This sequence of operations was run:
  Manager signed operations:
    From: tz1KqTpEZ7Yob7QbPE4Hy4Wo8fHG8LhKxZSx
    Fee to the baker: ꜩ0.00059
    Expected counter: 2
    Gas limit: 1550
    Storage limit: 485 bytes
    Balance updates:
      tz1KqTpEZ7Yob7QbPE4Hy4Wo8fHG8LhKxZSx ... -ꜩ0.00059
      payload fees(the block proposer) ....... +ꜩ0.00059
    Origination:
      From: tz1KqTpEZ7Yob7QbPE4Hy4Wo8fHG8LhKxZSx
      Credit: ꜩ0
      Script:
        { parameter address ;
          storage (option address) ;
          code { CAR ;
                 DUP ;
                 UNIT ;
                 VIEW "calls_count" nat ;
                 IF_NONE { UNIT ; FAILWITH } {} ;
                 DIP { UNIT ; VIEW "last_caller" (option address) } ;
                 PUSH nat 0 ;
                 IFCMPEQ
                   { IF_NONE { UNIT ; FAILWITH } { IF_NONE {} { UNIT ; FAILWITH } } ;
                     NONE address }
                   { IF_NONE { UNIT ; FAILWITH } { IF_NONE { UNIT ; FAILWITH } {} } ;
                     SOME } ;
                 NIL operation ;
                 PAIR } }
        Initial storage: None
        No delegate for this contract
        This origination was successfully applied
        Originated contracts:
          KT1RdnquZZf4Y4ZDJvaEuY4cbam3xor3CffU
        Storage size: 208 bytes
        Paid storage size diff: 208 bytes
        Consumed gas: 1449.065
        Balance updates:
          tz1KqTpEZ7Yob7QbPE4Hy4Wo8fHG8LhKxZSx ... -ꜩ0.052
          storage fees ........................... +ꜩ0.052
          tz1KqTpEZ7Yob7QbPE4Hy4Wo8fHG8LhKxZSx ... -ꜩ0.06425
          storage fees ........................... +ꜩ0.06425

New contract KT1RdnquZZf4Y4ZDJvaEuY4cbam3xor3CffU originated.
Contract memorized as check_caller.

./tezos-client --mode mockup --base-dir '<masked>' --wait none transfer 1 from bootstrap1 to KT1RdnquZZf4Y4ZDJvaEuY4cbam3xor3CffU --burn-cap 1 --arg '"KT1LfQjDNgPpdwMHbhzyQcD8GTE2L4rwxxpN"'
Node is bootstrapped.
Estimated gas: 4415.066 units (will add 100 for safety)
Estimated storage: no bytes added
Operation successfully injected in the node.
Operation hash is 'opUxUeYDcfyyqcKPECMAfz3iSQX6fU7PKUdxpjTwQxcMFp7WnDx'
NOT waiting for the operation to be included.
Use command
  tezos-client wait for opUxUeYDcfyyqcKPECMAfz3iSQX6fU7PKUdxpjTwQxcMFp7WnDx to be included --confirmations 1 --branch BLockGenesisGenesisGenesisGenesisGenesisCCCCCeZiLHU
and/or an external block explorer to make sure that it has been included.
This sequence of operations was run:
  Manager signed operations:
    From: tz1KqTpEZ7Yob7QbPE4Hy4Wo8fHG8LhKxZSx
    Fee to the baker: ꜩ0.000748
    Expected counter: 3
    Gas limit: 4516
    Storage limit: 0 bytes
    Balance updates:
      tz1KqTpEZ7Yob7QbPE4Hy4Wo8fHG8LhKxZSx ... -ꜩ0.000748
      payload fees(the block proposer) ....... +ꜩ0.000748
    Transaction:
      Amount: ꜩ1
      From: tz1KqTpEZ7Yob7QbPE4Hy4Wo8fHG8LhKxZSx
      To: KT1RdnquZZf4Y4ZDJvaEuY4cbam3xor3CffU
      Parameter: "KT1LfQjDNgPpdwMHbhzyQcD8GTE2L4rwxxpN"
      This transaction was successfully applied
      Updated storage: None
      Storage size: 208 bytes
      Consumed gas: 4415.864
      Balance updates:
        tz1KqTpEZ7Yob7QbPE4Hy4Wo8fHG8LhKxZSx ... -ꜩ1
        KT1RdnquZZf4Y4ZDJvaEuY4cbam3xor3CffU ... +ꜩ1


./tezos-client --mode mockup --base-dir '<masked>' --wait none transfer 1 from bootstrap1 to KT1LfQjDNgPpdwMHbhzyQcD8GTE2L4rwxxpN --burn-cap 1
Node is bootstrapped.
Estimated gas: 2116.892 units (will add 100 for safety)
Estimated storage: 27 bytes added (will add 20 for safety)
Operation successfully injected in the node.
Operation hash is 'oo5Hb4Qf1q4TuPb67SMwDftAmVejtrJVxU9XA12tPf7pNDp8b2C'
NOT waiting for the operation to be included.
Use command
  tezos-client wait for oo5Hb4Qf1q4TuPb67SMwDftAmVejtrJVxU9XA12tPf7pNDp8b2C to be included --confirmations 1 --branch BLockGenesisGenesisGenesisGenesisGenesisCCCCCeZiLHU
and/or an external block explorer to make sure that it has been included.
This sequence of operations was run:
  Manager signed operations:
    From: tz1KqTpEZ7Yob7QbPE4Hy4Wo8fHG8LhKxZSx
    Fee to the baker: ꜩ0.000472
    Expected counter: 4
    Gas limit: 2217
    Storage limit: 47 bytes
    Balance updates:
      tz1KqTpEZ7Yob7QbPE4Hy4Wo8fHG8LhKxZSx ... -ꜩ0.000472
      payload fees(the block proposer) ....... +ꜩ0.000472
    Transaction:
      Amount: ꜩ1
      From: tz1KqTpEZ7Yob7QbPE4Hy4Wo8fHG8LhKxZSx
      To: KT1LfQjDNgPpdwMHbhzyQcD8GTE2L4rwxxpN
      This transaction was successfully applied
      Updated storage: { 0x000002298c03ed7d454a101eb7022bc95f7e5f41ac78 }
      Storage size: 179 bytes
      Paid storage size diff: 27 bytes
      Consumed gas: 2117.804
      Balance updates:
        tz1KqTpEZ7Yob7QbPE4Hy4Wo8fHG8LhKxZSx ... -ꜩ0.00675
        storage fees ........................... +ꜩ0.00675
        tz1KqTpEZ7Yob7QbPE4Hy4Wo8fHG8LhKxZSx ... -ꜩ1
        KT1LfQjDNgPpdwMHbhzyQcD8GTE2L4rwxxpN ... +ꜩ1


./tezos-client --mode mockup --base-dir '<masked>' --wait none transfer 1 from bootstrap1 to KT1RdnquZZf4Y4ZDJvaEuY4cbam3xor3CffU --burn-cap 1 --arg '"KT1LfQjDNgPpdwMHbhzyQcD8GTE2L4rwxxpN"'
Node is bootstrapped.
Estimated gas: 4418.323 units (will add 100 for safety)
Estimated storage: 27 bytes added (will add 20 for safety)
Operation successfully injected in the node.
Operation hash is 'onuMSYN6eeKuSiHcYnJcYBk2Zy87EZ5dJNTYiRsjozjBi7Gt2dQ'
NOT waiting for the operation to be included.
Use command
  tezos-client wait for onuMSYN6eeKuSiHcYnJcYBk2Zy87EZ5dJNTYiRsjozjBi7Gt2dQ to be included --confirmations 1 --branch BLockGenesisGenesisGenesisGenesisGenesisCCCCCeZiLHU
and/or an external block explorer to make sure that it has been included.
This sequence of operations was run:
  Manager signed operations:
    From: tz1KqTpEZ7Yob7QbPE4Hy4Wo8fHG8LhKxZSx
    Fee to the baker: ꜩ0.000748
    Expected counter: 5
    Gas limit: 4519
    Storage limit: 47 bytes
    Balance updates:
      tz1KqTpEZ7Yob7QbPE4Hy4Wo8fHG8LhKxZSx ... -ꜩ0.000748
      payload fees(the block proposer) ....... +ꜩ0.000748
    Transaction:
      Amount: ꜩ1
      From: tz1KqTpEZ7Yob7QbPE4Hy4Wo8fHG8LhKxZSx
      To: KT1RdnquZZf4Y4ZDJvaEuY4cbam3xor3CffU
      Parameter: "KT1LfQjDNgPpdwMHbhzyQcD8GTE2L4rwxxpN"
      This transaction was successfully applied
      Updated storage: (Some 0x000002298c03ed7d454a101eb7022bc95f7e5f41ac78)
      Storage size: 235 bytes
      Paid storage size diff: 27 bytes
      Consumed gas: 4419.121
      Balance updates:
        tz1KqTpEZ7Yob7QbPE4Hy4Wo8fHG8LhKxZSx ... -ꜩ0.00675
        storage fees ........................... +ꜩ0.00675
        tz1KqTpEZ7Yob7QbPE4Hy4Wo8fHG8LhKxZSx ... -ꜩ1
        KT1RdnquZZf4Y4ZDJvaEuY4cbam3xor3CffU ... +ꜩ1

